name	pronouns	description
Binäre Pronomen	sie,er	Du kannst nicht-binär sein und gleichzeitig die Pronomen nutzen, die dir bei der Geburt zugewiesen wurden – oder aber diesen normativ gegenübergestellt sind.
Neutrum	es	Das Pronomen „es“ ist zwar sehr gebräuchlich im Deutschen, aber nicht im Bezug auf Menschen. Einige wenige Personenwörter wie „Mädchen“, „Individuum“ und „Mitglied“ sind zwar sächlich. Doch viele Deutschsprachige empfinden das Neutrum dennoch als versächlichend und entmündigend, wenn es statt „sie“ oder „er“ für Personen verwendet wird, was manche transfeindliche Personen auch ausnutzen. Daher solltest du vorsichtig sein und dieses Pronomen nur gebrauchen, wenn die entsprechende Person es sich ausdrücklich wünscht.
Neopronomen	dey,die,el,em,en,en/em,et,ey,hän,hen,hie,iks,ind,mensch,nin,oj,per,ser,sier,they,xier,zet,ersie	Im Gegensatz zu anderen Pronomen, die offiziell als „grammatikalisch korrekt“ anerkannt werden, sind Neopronomen neu geschaffen. Doch nur weil sie (noch) nicht in offiziellen Wörterbüchern stehen, sind sie noch lange nicht „schlechter“ oder „falsch“!
Pronomen mit Sonderzeichen	er:sie,er*sie,er_sie	Diese Pronomen benutzen Sonderzeichen, die der Trennung der Bestandteile dienen und vor einem Vokal als {https://de.wikipedia.org/wiki/Glottaler_Plosiv=Glottisschlag} ausgesprochen werden.
